{
    "reuse_sessions_for_project_links": true,
    "help_font_size_points": 12,
    "save_workspace": "never",
    "show_last_dot_value": true,
    "remove_history_duplicates": true,
    "num_spaces_for_tab": 4,
    "continue_comments_on_newline": true,
    "show_invisibles": true,
    "show_indent_guides": true,
    "syntax_color_console": true,
    "scroll_past_end_of_document": true,
    "highlight_r_function_calls": true,
    "auto_append_newline": true,
    "strip_trailing_whitespace": true,
    "check_arguments_to_r_function_calls": true,
    "check_unexpected_assignment_in_function_call": true,
    "warn_if_no_such_variable_in_scope": true,
    "warn_variable_defined_but_not_used": true,
    "style_diagnostics": true,
    "font_size_points": 12,
    "editor_theme": "Vibrant Ink",
    "save_files_before_build": true,
    "show_rmd_render_command": true,
    "posix_terminal_shell": "bash"
}